[
  {
    "climbID": "3d21a418-f13a-4834-a72c-8268653fc8f4",
    "gymID" : "d4792d34-da8d-4d57-99c0-ef4c820c48f3",
    "name" : "Dream Catcher",
    "color": "Dark Blue",
    "grade": "5.12a",
    "style": "Face"
  },
  {
    "climbID": "47e1bc2b-5b6a-44ee-b1a4-f5f7c60ff0da",
    "gymID" : "d4792d34-da8d-4d57-99c0-ef4c820c48f3",
    "name" : "Crown Of Thorns",
    "color": "Light Green",
    "grade": "5.7+",
    "style": "Slab"
  },
  {
    "climbID": "c84fd624-5584-4e31-ab07-63a6eae156fd",
    "gymID" : "d4792d34-da8d-4d57-99c0-ef4c820c48f3",
    "name" : "Satisfaction Guaranteed",
    "color": "White",
    "grade": "5.10b",
    "style": "Overhung"
  }
]
